<svg id="side_cut_2" xmlns="http://www.w3.org/2000/svg" width="43.2" height="457" viewBox="0 0 43.2 457">
  <rect id="Rectangle_1" data-name="Rectangle 1" width="24.95" height="18.25" rx="8.6" transform="translate(15.36 36.5)" fill="#66b2b2"/>
  <rect id="Rectangle_2" data-name="Rectangle 2" width="42.49" height="18.25" rx="8.6" fill="#66b2b2"/>
  <path id="Path_1" data-name="Path 1" d="M30.74,0V18.25h1a8.6,8.6,0,0,1,8.6,8.6v1a8.6,8.6,0,0,1-8.6,8.6h-1V54.76h1a8.6,8.6,0,0,1,8.6,8.6v1a8.6,8.6,0,0,1-8.6,8.6h-1V451.89A5.07,5.07,0,0,0,35.8,457h7.4V0Z" fill="#66b2b2"/>
</svg>
